{
  "radios": [
    {
      "name": "OUI FM - CLASSIC ROCK",
      "streamUrl": "https://ouifm3.ice.infomaniak.ch/ouifm3.mp3",
      "comment": "Classic rock",
      "imageAddress": "https://www.ouifm.fr/wp-content/uploads/fluxes/classicrock-72x72.png"
    },
    {
      "name": "OUI FM - BLUES'N'ROCK",
      "streamUrl": "https://ouifmbluesnrock.ice.infomaniak.ch/ouifmbluesnrock-128.mp3",
      "comment": "Blues'n'rock",
      "imageAddress": "https://images.lesindesradios.fr/fit-in/300x2000/filters:format(webp)/radios/oui-fm/radiostream/3qhtSltZ27/vignette.png"
    },
    {
      "name": "OUI FM - ROCK INDÉ",
      "streamUrl": "https://ouifm5.ice.infomaniak.ch/ouifm5.mp3",
      "comment": "Rock indé",
      "imageAddress": "https://images.lesindesradios.fr/fit-in/300x2000/filters:format(webp)/radios/oui-fm/radiostream/fkYz8mdU3T/vignette.png"
    },
    {
      "name": "OUI FM - ALTERNATIF",
      "streamUrl": "https://ouifm2.ice.infomaniak.ch/ouifm2.mp3",
      "comment": "Alternatif",
      "imageAddress": "https://images.lesindesradios.fr/fit-in/300x2000/filters:format(webp)/radios/oui-fm/radiostream/S2UWS5S3lJ/vignette.png"
    },
    {
      "name": "OUI FM - GARAGE ROCK",
      "streamUrl": "https://ouifmgaragerock.ice.infomaniak.ch/ouifmgaragerock-128.mp3",
      "comment": "Garage rock",
      "imageAddress": "https://images.lesindesradios.fr/fit-in/300x2000/filters:format(webp)/radios/ouifm/radiostream/PVQ1nX8P2i/vignette_X52HTWr00S.png"
    },
    {
      "name": "OUI FM - TOP OF THE WEEK",
      "streamUrl": "https://ouifmtopoftheweek.ice.infomaniak.ch/ouifmtopweek.mp3",
      "comment": "Rock indé",
      "imageAddress": "https://images.lesindesradios.fr/fit-in/300x2000/filters:format(webp)/radios/oui-fm/radiostream/RFWji6sMSN/vignette.png"
    },
    {
      "name": "OUI FM - BRING THE NOISE",
      "streamUrl": "https://ouifmbringthenoise.ice.infomaniak.ch/ouifmbringthenoise.mp3",
      "comment": "Rock indé",
      "imageAddress": "https://images.lesindesradios.fr/fit-in/300x2000/filters:format(webp)/radios/oui-fm/radiostream/tBdigJT2rb/vignette.png"
    },
    {
      "name": "OUI FM - ROCK FRANCAIS",
      "streamUrl": "https://ouifmrockfrancais.ice.infomaniak.ch/ouifmrockfrancais.mp3",
      "comment": "Rock français",
      "imageAddress": "https://images.lesindesradios.fr/fit-in/300x2000/filters:format(webp)/radios/oui-fm/radiostream/3fkpVzB8Cc/vignette.png"
    },
    {
      "name": "OUI FM - GIRLS ROCK",
      "streamUrl": "https://ouifmgirlsrock.ice.infomaniak.ch/ouifmgirlsrock.mp3",
      "comment": "Rock indé",
      "imageAddress": "https://images.lesindesradios.fr/fit-in/300x2000/filters:format(webp)/radios/oui-fm/radiostream/0hw7uCfIT8/vignette.png"
    },
    {
      "name": "OUI FM - ROCK 60's",
      "streamUrl": "https://ouifmrock60s.ice.infomaniak.ch/ouifmsixties.mp3",
      "comment": "Rock 60's",
      "imageAddress": "https://images.lesindesradios.fr/fit-in/300x2000/filters:format(webp)/radios/oui-fm/radiostream/Jhdp1QoWCO/vignette.png"
    },
    {
      "name": "OUI FM - ROCK 70's",
      "streamUrl": "https://ouifmrock70s.ice.infomaniak.ch/ouifmseventies.mp3",
      "comment": "Rock 70's",
      "imageAddress": "https://images.lesindesradios.fr/fit-in/300x2000/filters:format(webp)/radios/oui-fm/radiostream/GlXr8ww38P/vignette.png"
    },
    {
      "name": "OUI FM - ROCK 80's",
      "streamUrl": "https://ouifmrock80s.ice.infomaniak.ch/ouifmeighties.mp3",
      "comment": "Rock 80's",
      "imageAddress": "https://images.lesindesradios.fr/fit-in/300x2000/filters:format(webp)/radios/oui-fm/radiostream/6fo6l1uD2X/vignette.png"
    },
    {
      "name": "OUI FM - ROCK 90's",
      "streamUrl": "https://ouifmrock90s.ice.infomaniak.ch/ouifmnineties.mp3",
      "comment": "Rock 90's",
      "imageAddress": "https://images.lesindesradios.fr/fit-in/300x2000/filters:format(webp)/radios/oui-fm/radiostream/OQiFGri4ef/vignette.png"
    },
    {
      "name": "OUI FM - ROCK 2000",
      "streamUrl": "https://ouifmrock2000s.ice.infomaniak.ch/ouifmrock2000.mp3",
      "comment": "Rock 2000",
      "imageAddress": "https://images.lesindesradios.fr/fit-in/300x2000/filters:format(webp)/radios/oui-fm/radiostream/PS5mho8vsS/vignette.png"
    },
    {
      "name": "OUI FM - CHRISTMAS ROCK",
      "streamUrl": "https://ouifmnoel.ice.infomaniak.ch/ouifmnoel-128.mp3",
      "comment": "Christmas rock",
      "imageAddress": "https://images.lesindesradios.fr/fit-in/300x2000/filters:format(webp)/radios/ouifm/radiostream/Z1gp5WuV6u/vignette_DICa5eEuWc.png"
    },
    {
      "name": "OUI FM - ACOUSTIC",
      "streamUrl": "https://ouifmacoustic.ice.infomaniak.ch/ouifmacoustic.mp3",
      "comment": "Acoustic rock",
      "imageAddress": "https://images.lesindesradios.fr/fit-in/300x2000/filters:format(webp)/radios/oui-fm/radiostream/NSzUtv6XGF/vignette.png"
    },
    {
      "name": "OUI FM - LES SLOWS DU ROCK",
      "streamUrl": "https://ouifmlesslowsdurock.ice.infomaniak.ch/ouifmslowrock.mp3",
      "comment": "Les slows du rock",
      "imageAddress": "https://images.lesindesradios.fr/fit-in/300x2000/filters:format(webp)/radios/oui-fm/radiostream/QqHO8qpoE2/vignette.png"
    },
    {
      "name": "OUI FM - GENERATION WOODSTOCK",
      "streamUrl": "https://ouifmwoodstock.ice.infomaniak.ch/ouifmwoodstock.mp3",
      "comment": "Génération woodstock",
      "imageAddress": "https://images.lesindesradios.fr/fit-in/300x2000/filters:format(webp)/radios/oui-fm/radiostream/xD29y7pjPX/vignette.png"
    },
    {
      "name": "OUI FM - SUMMERTIME",
      "streamUrl": "https://ouifmsummertime.ice.infomaniak.ch/ouifmsummertime.mp3",
      "comment": "Summertime",
      "imageAddress": "https://images.lesindesradios.fr/fit-in/300x2000/filters:format(webp)/radios/oui-fm/radiostream/RN2oOuAbDH/vignette.png"
    },
    {
      "name": "OUI FM - REGGAE",
      "streamUrl": "https://ouifmganja.ice.infomaniak.ch/ouifmganja-128.mp3",
      "comment": "Reggae",
      "imageAddress": "https://images.lesindesradios.fr/fit-in/300x2000/filters:format(webp)/radios/oui-fm/radiostream/ufIfkfDXSl/vignette.png"
    }
  ]
}
